{"response":{"status":"ok","userTier":"developer","total":2105221,"startIndex":1,"pageSize":10,"currentPage":1,"pages":210523,"orderBy":"newest","results":[{"id":"football/live/2019/apr/06/bournemouth-v-burnley-newcastle-v-crystal-palace-and-more-live","type":"liveblog","sectionId":"football","sectionName":"Football","webPublicationDate":"2019-04-06T13:06:25Z","webTitle":"Bournemouth v Burnley, Newcastle v Crystal Palace and more – live!","webUrl":"https://www.theguardian.com/football/live/2019/apr/06/bournemouth-v-burnley-newcastle-v-crystal-palace-and-more-live","apiUrl":"https://content.guardianapis.com/football/live/2019/apr/06/bournemouth-v-burnley-newcastle-v-crystal-palace-and-more-live","isHosted":false,"pillarId":"pillar/sport","pillarName":"Sport"},{"id":"world/2019/apr/06/libya-international-community-warns-haftar-against-tripoli-attack","type":"article","sectionId":"world","sectionName":"World news","webPublicationDate":"2019-04-06T13:05:52Z","webTitle":"Libya: international community warns Haftar against Tripoli attack","webUrl":"https://www.theguardian.com/world/2019/apr/06/libya-international-community-warns-haftar-against-tripoli-attack","apiUrl":"https://content.guardianapis.com/world/2019/apr/06/libya-international-community-warns-haftar-against-tripoli-attack","isHosted":false,"pillarId":"pillar/news","pillarName":"News"},{"id":"sport/live/2019/apr/06/grand-national-day-2019-live","type":"liveblog","sectionId":"sport","sectionName":"Sport","webPublicationDate":"2019-04-06T13:05:23Z","webTitle":"Grand National day 2019 – live!","webUrl":"https://www.theguardian.com/sport/live/2019/apr/06/grand-national-day-2019-live","apiUrl":"https://content.guardianapis.com/sport/live/2019/apr/06/grand-national-day-2019-live","isHosted":false,"pillarId":"pillar/sport","pillarName":"Sport"},{"id":"politics/2019/apr/06/corn-laws-cold-war-history-teaches-brexit","type":"article","sectionId":"politics","sectionName":"Politics","webPublicationDate":"2019-04-06T13:04:50Z","webTitle":"From Corn Laws to cold war, what history can teach us about Brexit","webUrl":"https://www.theguardian.com/politics/2019/apr/06/corn-laws-cold-war-history-teaches-brexit","apiUrl":"https://content.guardianapis.com/politics/2019/apr/06/corn-laws-cold-war-history-teaches-brexit","isHosted":false,"pillarId":"pillar/news","pillarName":"News"},{"id":"music/2019/apr/06/weyes-blood-titanic-rising-review-movies-sub-pop","type":"article","sectionId":"music","sectionName":"Music","webPublicationDate":"2019-04-06T13:00:50Z","webTitle":"Weyes Blood: Titanic Rising review – beauty deep enough to drown in","webUrl":"https://www.theguardian.com/music/2019/apr/06/weyes-blood-titanic-rising-review-movies-sub-pop","apiUrl":"https://content.guardianapis.com/music/2019/apr/06/weyes-blood-titanic-rising-review-movies-sub-pop","isHosted":false,"pillarId":"pillar/arts","pillarName":"Arts"},{"id":"world/2019/apr/06/brexit-distraction-far-right-nationalists-eu-elections","type":"article","sectionId":"world","sectionName":"World news","webPublicationDate":"2019-04-06T13:00:50Z","webTitle":"Populists are whipping up a storm as Europe faces lurch to the right","webUrl":"https://www.theguardian.com/world/2019/apr/06/brexit-distraction-far-right-nationalists-eu-elections","apiUrl":"https://content.guardianapis.com/world/2019/apr/06/brexit-distraction-far-right-nationalists-eu-elections","isHosted":false,"pillarId":"pillar/news","pillarName":"News"},{"id":"fashion/2019/apr/06/secondhand-designer-childrens-clothes-in-fashion","type":"article","sectionId":"fashion","sectionName":"Fashion","webPublicationDate":"2019-04-06T13:00:50Z","webTitle":"Canny parents wise up to used designer kidswear at tiny prices","webUrl":"https://www.theguardian.com/fashion/2019/apr/06/secondhand-designer-childrens-clothes-in-fashion","apiUrl":"https://content.guardianapis.com/fashion/2019/apr/06/secondhand-designer-childrens-clothes-in-fashion","isHosted":false,"pillarId":"pillar/lifestyle","pillarName":"Lifestyle"},{"id":"sport/live/2019/apr/06/county-cricket-notts-v-yorkshire-somerset-v-kent-and-more-live","type":"liveblog","sectionId":"sport","sectionName":"Sport","webPublicationDate":"2019-04-06T13:00:30Z","webTitle":"County cricket: Notts v Yorkshire, Somerset v Kent and more – live!","webUrl":"https://www.theguardian.com/sport/live/2019/apr/06/county-cricket-notts-v-yorkshire-somerset-v-kent-and-more-live","apiUrl":"https://content.guardianapis.com/sport/live/2019/apr/06/county-cricket-notts-v-yorkshire-somerset-v-kent-and-more-live","isHosted":false,"pillarId":"pillar/sport","pillarName":"Sport"},{"id":"music/2019/apr/06/one-to-watch-wh-lung","type":"article","sectionId":"music","sectionName":"Music","webPublicationDate":"2019-04-06T12:59:49Z","webTitle":"Ones to watch: WH Lung","webUrl":"https://www.theguardian.com/music/2019/apr/06/one-to-watch-wh-lung","apiUrl":"https://content.guardianapis.com/music/2019/apr/06/one-to-watch-wh-lung","isHosted":false,"pillarId":"pillar/arts","pillarName":"Arts"},{"id":"uk-news/2019/apr/06/soldier-craig-palmer-who-rushed-to-parsons-green-bomb-given-bravery-award","type":"article","sectionId":"uk-news","sectionName":"UK news","webPublicationDate":"2019-04-06T12:05:47Z","webTitle":"Soldier who rushed towards Parsons Green bomb given bravery award","webUrl":"https://www.theguardian.com/uk-news/2019/apr/06/soldier-craig-palmer-who-rushed-to-parsons-green-bomb-given-bravery-award","apiUrl":"https://content.guardianapis.com/uk-news/2019/apr/06/soldier-craig-palmer-who-rushed-to-parsons-green-bomb-given-bravery-award","isHosted":false,"pillarId":"pillar/news","pillarName":"News"}]}}